{
  "name": "fluro",
  "version": "0.1.0",
  "author": "Cade Embery",
  "private": true,
  "devDependencies": {
    "grunt": "*",
    "grunt-angular-templates": "^0.5.7",
    "grunt-autoprefixer": "*",
    "grunt-contrib-concat": "^0.5.0",
    "grunt-contrib-copy": "*",
    "grunt-contrib-cssmin": "^0.11.0",
    "grunt-contrib-htmlmin": "^0.3.0",
    "grunt-contrib-sass": "*",
    "grunt-contrib-uglify": "^0.7.0",
    "grunt-contrib-watch": "*",
    "grunt-filerev": "^2.1.2",
    "grunt-usemin": "*",
    "grunt-wiredep": "*",
    "matchdep": "*"
  },
  "dependencies": {
    "grunt-angular-templates": "^0.5.7"
  }
}
